<svg id="レイヤー_1" data-name="レイヤー 1" xmlns="http://www.w3.org/2000/svg" width="38" height="38" viewBox="0 0 38 38">
  <title>modal-close</title>
  <line x1="6.27" y1="6.27" x2="31.73" y2="31.73" fill="none" stroke="#a8a8a8" stroke-linecap="round" stroke-miterlimit="10" stroke-width="2"/>
  <line x1="31.73" y1="6.27" x2="6.27" y2="31.73" fill="none" stroke="#a8a8a8" stroke-linecap="round" stroke-miterlimit="10" stroke-width="2"/>
</svg>
